<?xml version="1.0" encoding="utf-8"?>
<!-- Generator: Adobe Illustrator 24.0.2, SVG Export Plug-In . SVG Version: 6.00 Build 0)  -->
<svg version="1.1" id="Layer_1" xmlns="http://www.w3.org/2000/svg" xmlns:xlink="http://www.w3.org/1999/xlink" x="0px" y="0px"
	 viewBox="0 0 404.8 266.6" style="enable-background:new 0 0 404.8 266.6;" xml:space="preserve">
<style type="text/css">
	.st0{fill:#0B0B0B;}
</style>
<g>
	<path class="st0" d="M142.8,196.5c-26.9-0.1-47.4-20-47.3-46c0.1-26.2,20.5-45.8,47.5-45.7c26.8,0.1,47.6,20.3,47.5,46
		C190.3,176.9,169.7,196.6,142.8,196.5z"/>
	<path class="st0" d="M230.6,50.4c0,12.4,0,23.3,0,34.3c0,5.4-0.7,6.1-6.2,6.1c-5.8,0-11.6,0-17.3,0c-3.3,0-4.9-1.4-4.9-4.8
		c0-26.5,0-53,0-79.5c0-3.4,1.6-4.8,4.9-4.8c6.1,0.1,12.1,0.1,18.2,0c4-0.1,6.7,1.5,8.8,4.9c4.9,8.1,9.9,16.1,15.3,24.8
		c3.7-5.9,7.1-11.3,10.5-16.8c9.3-15.1,6.3-12.6,22.9-12.8c3,0,5.9,0.1,8.9,0c3.3-0.1,4.9,1.4,4.9,4.8c0,26.5,0,53,0,79.5
		c0,3.4-1.5,4.9-4.8,4.8c-6.2-0.1-12.4-0.1-18.7,0c-3.9,0.1-5.2-1.7-5.2-5.4c0.1-9.9,0-19.8,0-29.8c0-1.4,0-2.8,0-4.2
		c-0.3-0.1-0.6-0.2-0.9-0.3c-2.9,4.4-5.8,8.7-8.6,13.1c-1.6,2.5-3.2,5-4.9,7.4c-2.9,4.2-5.9,4.2-8.7,0c-3.7-5.5-7.3-11.1-11-16.7
		C233.1,53.8,232.2,52.6,230.6,50.4z"/>
	<path class="st0" d="M249.3,165.3c-5.3,8.6-10.2,16.3-14.9,24.2c-2.4,4-5.5,5.8-10.2,5.7c-5.5-0.2-11-0.1-16.4,0
		c-3.6,0-5.4-1.4-5.4-5.3c0.1-26.1,0.1-52.1,0-78.2c0-3.6,1.4-5.1,5-5.1c5.9,0.1,11.9,0.1,17.8,0c3.9-0.1,5.2,1.8,5.2,5.4
		c-0.1,9.6,0,19.3,0,28.9c0,1.7,0,3.4,0,5.1c0.4,0.1,0.8,0.2,1.1,0.3c4.2-6.4,8.4-12.7,12.6-19.1c4-6.1,6.3-6.1,10.3,0
		c3.5,5.3,6.9,10.7,10.4,16c0.8,1.2,1.7,2.2,3.2,4.3c0.1-2.6,0.3-4,0.3-5.4c0-10.1,0.1-20.1,0-30.2c0-3.5,1.2-5.2,4.9-5.2
		c6.2,0.1,12.4,0.1,18.7,0c3.1,0,4.6,1.3,4.6,4.5c0,26.5,0,53,0,79.5c0,3-1.5,4.4-4.3,4.4c-6.7,0.1-13.4,0.4-20-0.2
		c-2.5-0.2-5.4-2.5-6.9-4.6c-4.6-6.7-8.7-13.8-12.9-20.7C251.4,168.3,250.6,167.1,249.3,165.3z"/>
	<path class="st0" d="M0.5,150.1c0-12.7,0.1-25.4-0.1-38.2c0-4,1.4-5.6,5.5-5.5c13.9,0.5,28-0.6,41.6,1.4
		c30.6,4.5,46.4,35.8,32.7,63.2c-7.4,14.8-20.5,21.6-36.1,23c-12.9,1.2-26,0.6-39,0.9c-3.7,0.1-4.7-2.1-4.7-5.4
		C0.6,176.5,0.5,163.3,0.5,150.1z"/>
	<path class="st0" d="M142.4,92.5C115.7,92.4,95,72.2,95,46.3C95,20.2,116.3-0.1,143.4,0c26.7,0.1,47.4,20.3,47.3,46.3
		C190.7,72.4,169.6,92.6,142.4,92.5z M161.4,46.2c-0.1-11.2-8.1-19.6-18.7-19.6c-10.4,0-18.1,8.3-18.1,19.5
		c0,11.3,7.8,19.7,18.4,19.7C153.6,65.9,161.4,57.5,161.4,46.2z"/>
	<path class="st0" d="M0.2,46.4c0-12.9,0-25.8,0-38.7c0-5.2,0.8-6.1,5.9-6c13.5,0.2,27-0.4,40.3,1.1c16.2,1.9,29.4,9.9,35.5,25.8
		c6,15.8,4.8,31.3-6,44.9c-8.8,11.2-21.2,16-35,16.8c-12,0.7-24,0.2-36,0.4c-4.2,0-4.8-2.4-4.8-5.8C0.2,72.2,0.2,59.3,0.2,46.4z
		 M29.3,27.7c0,12.6,0,24.6,0,36.9c9.2,0.2,18.2,0.6,23.6-8.1c4.1-6.6,4.1-14,0-20.6C47.4,27.2,38.5,27.4,29.3,27.7z"/>
	<path class="st0" d="M390.3,90.8c-3.3,0-6.5-0.1-9.8,0c-3.8,0.2-6.7-1.4-7.4-5c-1.7-8.7-6.8-9.7-11.3-9.9c-1.1,0-12.8,0-13.9,0
		c-5.1,0.1-9.7,0.4-11.7,10.6c-0.3,1.7-3.8,3.8-5.9,4c-7.1,0.5-14.2,0.2-21.3,0.2c-3.5,0-4-1.7-2.8-4.6c11.4-27,22.7-54,34.4-80.8
		c0.9-2,4.1-3.9,6.5-4.2c5.4-0.6,10.9-0.2,16.4-0.2c3.4,0,5.5,1.7,6.8,4.7c11.3,26.7,22.6,53.4,33.8,80.1c1.7,4,1,4.9-3.5,5
		C397.1,90.8,393.7,90.8,390.3,90.8z M354.8,39.7C353,44.1,351.5,48,350,52c3.5,0,6.5,0,9.9,0c-1.4-3.6-2.6-6.7-3.8-9.8
		C355.8,41.5,355.4,40.9,354.8,39.7z"/>
	<path class="st0" d="M319.7,106.5c0.1,0,0.3,0,0.4,0c16,0.2,13.7-2.1,19.4,12.2c0.5,1.2,2.5,2.4,3.9,2.4c7.5,0.2,15.1,0,22.6,0.2
		c2.6,0.1,3.6-1.1,4.5-3.2c5.4-13.1,3.1-11.4,17.6-11.5c4,0,8,0,12,0c4.6,0.1,5.1,0.7,3.4,4.9c-4.7,11.3-9.5,22.6-14.3,33.9
		c-6.3,14.8-12.6,29.6-18.8,44.5c-1.6,4-3.9,5.9-8.3,5.6c-5-0.3-10.1-0.2-15.1,0c-3.3,0.1-5.3-1.4-6.6-4.3
		c-11.3-26.8-22.6-53.6-34-80.4c-1.4-3.3-0.2-4.3,3-4.3C312.9,106.6,316.3,106.6,319.7,106.5C319.7,106.6,319.7,106.5,319.7,106.5z"
		/>
	<path class="st0" d="M366.7,265.6c-2.8,0-4.7,0-6.9,0c0-13,0-25.8,0-38.9c3.4-1.1,6.1-0.9,8.6,2.5c5.8,7.9,11.9,15.5,18.5,24
		c0-9.4,0-17.8,0-26.7c2.6,0,4.6,0,7,0c0,13,0,25.8,0,38.7c-3.6,1.3-6.1,0.4-8.3-2.7c-5.9-8-12.1-15.7-18.9-24.6
		C366.7,247.8,366.7,256.5,366.7,265.6z"/>
	<path class="st0" d="M97.8,225.6c11.8,0,20.7,8.8,20.7,20.4c0.1,11.6-9.2,20.7-21.1,20.6c-11.7-0.1-20.5-9.1-20.4-20.7
		C77,234.3,86,225.6,97.8,225.6z M111.1,245.9c-0.1-8-5.9-14-13.5-13.9c-7.6,0-13.4,6.3-13.3,14.2c0.1,7.8,6.2,14.1,13.6,14
		C105.5,260.1,111.2,253.9,111.1,245.9z"/>
	<path class="st0" d="M127.2,265.6c0-13.3,0-26.1,0-39.6c7,0.3,13.9-0.1,20.5,1.1c9.4,1.6,15.6,10.3,15.2,19.6
		c-0.4,9.8-7.3,17.8-17.3,18.8C139.6,266.1,133.6,265.6,127.2,265.6z M134.1,259.3c7.6,0.3,15.2,1.5,19.6-6.2
		c2.9-5.1,2.7-10.6-0.9-15.4c-4.9-6.4-11.8-5.1-18.7-4.8C134.1,241.8,134.1,250.3,134.1,259.3z"/>
	<path class="st0" d="M70.9,265.4c-5,1-9,0.8-11.2-4.2c-0.6-1.5-2.1-2.6-2.7-4c-2.4-5.3-6.6-6.1-12.3-4.7c0,4.2,0,8.5,0,13.1
		c-2.5,0-4.4,0-6.6,0c0-12.9,0-25.8,0-38.8c7.5,0,15.2-0.5,22.8,0.2c5.2,0.5,8.5,4.9,9,9.7c0.7,5.5-1,9.9-6,12.8
		c-0.9,0.5-1.8,0.9-3.1,1.5C64.2,255.8,67.5,260.5,70.9,265.4z M44.9,246c4.5-0.2,8.7-0.1,12.9-0.7c3.5-0.5,5.2-3,5.1-6.7
		c-0.2-3.5-2.3-5.5-5.5-5.8c-4-0.3-8.1-0.1-12.4-0.1C44.9,237.2,44.9,241.3,44.9,246z"/>
	<path class="st0" d="M330.1,225.6c11.9-0.1,20.7,8.5,20.8,20.2c0.1,11.8-8.9,20.8-20.8,20.8c-11.7,0-20.6-8.8-20.6-20.5
		C309.6,234.4,318.3,225.6,330.1,225.6z M343.6,246.2c0.1-8-5.6-14.2-13.2-14.3c-7.7-0.1-13.5,5.7-13.6,13.8
		c-0.1,8,5.6,14.2,13.2,14.4C337.5,260.4,343.5,254.2,343.6,246.2z"/>
	<path class="st0" d="M0,226.5c6.5,0,12.7-0.4,18.8,0.1c7,0.6,11.3,5.6,11.6,12.3c0.3,6.5-3.7,12-10.5,13.4
		c-4.1,0.8-8.4,0.8-13.1,1.2c0,3.8,0,7.8,0,11.9c-2.4,0-4.4,0-6.8,0C0,252.7,0,239.8,0,226.5z M6.9,247.1c4-0.3,7.7-0.2,11.3-0.9
		c3.7-0.7,5.4-3.6,5.1-7.3c-0.3-3.5-2.5-5.7-6-6c-3.3-0.3-6.7-0.1-10.3-0.1C6.9,237.4,6.9,241.8,6.9,247.1z"/>
	<path class="st0" d="M171.3,226.4c1.9,0,3.8,0,6.4,0c0,5.2,0,10.3,0,15.4c0,3.2,0,6.5,0.4,9.7c0.8,5.7,4.5,8.7,10,8.5
		c5.7-0.2,9.3-3.5,9.6-9.6c0.3-6.3,0.1-12.7,0.1-19.1c0-1.6,0-3.2,0-5c2.5,0,4.5,0,6.2,0c0,9.7,0.7,19.1-0.2,28.4
		c-0.8,7.6-7.8,11.8-16.5,11.6c-8.4-0.1-15-4.5-15.7-12.1C170.7,245.2,171.3,235.9,171.3,226.4z"/>
	<path class="st0" d="M248.4,231.8c-1.3,1.5-2.6,3.1-3.9,4.6c-10.6-5.9-16.7-5.8-21.5,0.4c-4.4,5.6-4,14.5,1,19.5
		c5.2,5.3,11.8,5,20.7-1.2c1.2,1.3,2.5,2.7,3.8,4c-6.1,8.5-19.5,10-28.1,3.2c-9.1-7.2-10.4-21.3-2.6-30.1
		C225.5,223.5,239.8,223.2,248.4,231.8z"/>
	<path class="st0" d="M285.5,226.5c0,2.3,0,4,0,6.1c-4,0-7.8,0-12.1,0c0,11.1,0,21.8,0,32.9c-2.5,0-4.5,0-7,0c0-10.5,0-21.3,0-32.6
		c-4.4,0-8.3,0-12.5,0c0-2.4,0-4.2,0-6.4C264.4,226.5,274.8,226.5,285.5,226.5z"/>
	<path class="st0" d="M300.3,265.6c-2.2,0-4.2,0-6.4,0c0-13.1,0-26.1,0-39.2c2.2,0,4.2,0,6.4,0C300.3,239.5,300.3,252.5,300.3,265.6
		z"/>
</g>
</svg>
