<?xml version="1.0" encoding="utf-8"?>
<!-- Generator: Adobe Illustrator 24.0.2, SVG Export Plug-In . SVG Version: 6.00 Build 0)  -->
<svg version="1.1" id="Layer_1" xmlns="http://www.w3.org/2000/svg" xmlns:xlink="http://www.w3.org/1999/xlink" x="0px" y="0px"
	 viewBox="0 0 230.4 230.4" style="enable-background:new 0 0 230.4 230.4;" xml:space="preserve">
<style type="text/css">
	.st0{fill:#0B0B0B;}
</style>
<g>
	<path class="st0" d="M83.2,192.7c0,2,0,3.4,0,5.7c1.7-0.7,3-1,4.2-1.8c0.4-0.2,0.4-2,0-2.2C86.3,193.7,84.9,193.3,83.2,192.7z"/>
	<path class="st0" d="M185.8,8.3c4.9-2.7,9.8-5.5,14.6-8.3h-30.7c4.9,2.7,9.8,5.5,14.7,8.2C184.8,8.4,185.5,8.5,185.8,8.3z"/>
	<path class="st0" d="M90.4,24.3c0.5-0.3,1-0.6,1.7-1c-3.4-1.9-6.5-3.6-9.7-5.4c-10-5.6-20.1-11.2-30.2-16.8
		c-0.6-0.3-1.1-0.7-1.6-1.1H32.7c7.3,4.1,14.7,8.2,22,12.3c5.8,3.2,11.7,6.5,17.5,9.7c0.6,0.3,1.2,0.7,2,1.2c-0.6,0.4-1,0.7-1.4,1
		C48.9,37.4,25,50.6,1.1,63.8C0.7,64,0.4,64.1,0,64.2V74c2.2-1.1,4.4-2.1,6.5-3.3C34.5,55.2,62.4,39.8,90.4,24.3z"/>
	<path class="st0" d="M195,23.3c12,6.6,23.6,13.1,35.4,19.5v-9.3c-3-1.5-5.9-3.1-8.9-4.6c-3.3-1.8-6.5-3.6-10.1-5.6
		c6.6-3.6,12.8-7,19-10.4v-9c-0.2,0-0.5,0-0.7,0.2C218.3,10.4,206.8,16.8,195,23.3z"/>
	<path class="st0" d="M118.6,199.6c1.4,0,2.6,0,4,0c-0.7-1.6-1.2-3-2-4.8C119.9,196.7,119.3,198.1,118.6,199.6z"/>
	<path class="st0" d="M43.4,108.2c0-2.5-1-4.5-3.4-5.1c-2.6-0.7-5.4-0.8-8.3-1.2c0,4.5,0,8.3,0,12.5c2.9-0.4,5.6-0.5,8.2-1.2
		C42.2,112.6,43.4,110.6,43.4,108.2z"/>
	<path class="st0" d="M131,105c-1.8,4.5-3.5,8.6-5.2,12.8c3.6,0,6.9,0,10.4,0C134.5,113.6,132.9,109.5,131,105z"/>
	<path class="st0" d="M62.5,24.5c0.6-0.3,1.2-0.7,2-1.2c-5.1-2.8-9.9-5.5-14.8-8.2c-8.4-4.6-16.8-9.3-25.1-13.9
		C24,0.8,23.5,0.4,23,0H5.1C10.4,3,15.7,6,21,9c8,4.5,16.1,8.9,24.1,13.4c0.4,0.2,0.8,0.5,1.6,1C30.9,32,15.5,40.5,0,49v9.8
		c6.4-3.5,12.7-6.9,19.1-10.4C33.6,40.4,48,32.4,62.5,24.5z"/>
	<path class="st0" d="M42.7,155.3c0.1-2.4-1-4.1-3.2-5c-2.6-1.1-5.4-0.8-8.2-0.7c0,3.7,0,7.3,0,11.5c2.8-0.4,5.5-0.5,8-1.1
		C41.5,159.5,42.6,157.6,42.7,155.3z"/>
	<path class="st0" d="M26,17.3C18,12.8,10,8.4,1.9,3.9C1.3,3.6,0.6,3.4,0,3.1v9.7c6.2,3.4,12.5,6.8,19.1,10.4
		c-3.7,2.1-7.1,4-10.5,5.8c-2.8,1.5-5.7,3-8.5,4.5c0-1.8,0-3.6,0-5.4c3-1.5,5.9-3,9.3-4.7c-3.4-1.8-6.3-3.4-9.3-5
		C0,16.5,0,14.7,0,12.8v30.8c12.2-6.7,24.3-13.4,36.8-20.3C33,21.2,29.5,19.2,26,17.3z"/>
	<path class="st0" d="M114.9,166.6c0.2,3.5,2.4,5.6,5.6,5.8c3.8,0.2,6.5-1.4,6.7-5.1c0.3-4.5,0.3-9.2-0.1-13.7
		c-0.2-3.1-2.7-4.6-5.9-4.7c-3.1-0.1-5.4,1.5-6,4.4c-0.4,2.4-0.4,4.9-0.5,7.3c0.1,0,0.1,0,0.2,0
		C114.9,162.6,114.8,164.6,114.9,166.6z"/>
	<path class="st0" d="M230.4,28v-9.7c-2.9,1.6-5.9,3.2-9.2,5C224.5,25,227.5,26.5,230.4,28z"/>
	<path class="st0" d="M153.3,149.9c-2.3-0.5-4.8-0.5-7.4-0.7c0,4.1,0,7.8,0,11.7c2.5-0.2,4.9-0.2,7.2-0.7c2.6-0.5,4-2.5,4.1-5
		C157.3,152.6,155.9,150.5,153.3,149.9z"/>
	<path class="st0" d="M189.5,199.6c1.4,0,2.6,0,4,0c-0.7-1.6-1.3-3-2-4.8C190.7,196.7,190.2,198.1,189.5,199.6z"/>
	<path class="st0" d="M159.8,195.1c-0.2-1.5-1.1-2.5-2.7-2.4c-1.5,0.1-2.4,1.1-2.5,2.5c-0.1,1.9-0.1,3.9,0,5.8
		c0.1,1.5,1,2.4,2.5,2.4s2.4-0.8,2.6-2.3c0.2-0.9,0.1-1.9,0.1-2.9S159.9,196.1,159.8,195.1z"/>
	<path class="st0" d="M223.1,72.9c-12.1-6.8-24.4-13.5-36.5-20.3c-1.1-0.6-1.8-0.5-2.8,0.1c-12.2,6.8-24.5,13.5-36.7,20.4
		c-2.1,1.2-4.2,1.9-6.6,1.7c-1.8-0.1-3.5,0-5.4-0.4c0.4-0.3,0.8-0.6,1.2-0.8c15.8-8.7,31.5-17.4,47.3-26.2c1.3-0.7,2.3-0.7,3.5,0
		c13.7,7.6,27.4,15.2,41.2,22.8c0.6,0.4,1.4,0.6,2.1,0.9v-8.4c-5-2.7-9.9-5.3-14.9-8c-9.7-5.3-19.3-10.6-28.9-16
		c-1.2-0.7-2.1-0.5-3.2,0.1c-20.6,11.4-41.3,22.8-61.9,34.3c-2.1,1.2-4.2,1.9-6.6,1.7c-1.8-0.1-3.6,0-5.9,0c0.7-0.5,1-0.9,1.4-1.1
		c24.3-13.5,48.7-26.9,73-40.4c1.3-0.7,2.3-0.7,3.5,0.1c13.7,7.6,27.4,15.2,41.2,22.8c0.7,0.4,1.5,0.7,2.3,1.1v-9.1
		c-15-8.3-29.9-16.5-45.2-24.9c1.8-1,3.2-1.8,4.7-2.6c12-6.6,24-13.3,36-19.9c0.4-0.2,0.8-0.5,1.1-0.7c1.2,0,2.2,0,3.4,0V0h-19.8
		c-8.2,4.6-16.4,9.1-24.6,13.7c-0.4,0.2-1,0.2-1.4,0C176.3,9.2,168.2,4.6,160,0h-16.4c3.9,2.2,7.7,4.5,11.6,6.6
		c9.6,5.3,19.2,10.6,28.7,15.9c0.3,0.2,0.6,0.4,1.2,0.8c-3.3,1.9-6.5,3.6-9.7,5.4C148.7,43.4,122.1,58.1,95.5,73
		c-3,1.7-6,1.8-9.1,1.8c-1.1,0-2.1,0-3.2,0c0-0.2-0.1-0.3-0.1-0.5c30.6-16.9,61.3-33.9,92.2-51c-0.8-0.5-1.4-0.9-2-1.2
		c-12.6-7-25.3-14-37.9-21c-0.5-0.3-1-0.7-1.5-1.1H116c3.9,2.2,7.8,4.5,11.7,6.7c9.8,5.5,19.6,10.9,29.7,16.4c-0.6,0.4-1,0.7-1.5,1
		C125.8,40.8,95.7,57.4,65.5,74c-0.5,0.3-1.1,0.6-1.6,0.6c-2.8,0.1-5.7,0-8.6-0.4c30.7-17,61.4-33.9,92.4-51.1
		c-4.3-2.4-8.4-4.7-12.4-6.9c-9.5-5.3-19.1-10.5-28.6-15.8c-0.2-0.1-0.4-0.3-0.5-0.4H88.4c0.8,0.6,1.6,1.2,2.5,1.7
		c12.2,6.8,24.4,13.5,36.6,20.3c0.7,0.4,1.3,0.8,2.3,1.3c-1.2,0.7-2.2,1.3-3.3,1.9C97,41.4,67.5,57.7,38.1,74
		c-0.9,0.5-1.9,0.7-2.9,0.8c-2.5,0.1-4.9,0-7.5-0.4c30.7-17,61.4-33.9,92.3-51.1c-1.1-0.6-2-1.1-2.8-1.6C104.7,14.8,92.2,7.9,79.8,1
		c-0.5-0.3-1-0.6-1.4-0.9C81.6,0,85,0,88.4,0H60.3C69.2,4.9,78.1,9.9,87,14.8c4.9,2.7,9.8,5.5,15.1,8.4c-1,0.6-1.7,1-2.5,1.4
		C70.4,40.8,41.1,57,11.9,73.2c-2,1.1-4,1.7-6.2,1.6c-1.9-0.1-3.8,0-5.6,0C0,74.5,0,74.2,0,74v156.4h230.4V74.7
		C227.7,75,225.4,74.2,223.1,72.9z M162,73.4c7.2-4,14.5-8.1,21.8-12c0.7-0.4,1.9-0.5,2.6-0.2c7.6,4.1,15.2,8.3,22.8,12.5
		c0.3,0.1,0.5,0.4,0.7,0.8c-3.9-0.3-7.9,1.1-11.7-1.3c-3.7-2.4-7.7-4.3-11.5-6.5c-1-0.6-1.8-0.6-2.8,0c-3.9,2.2-7.9,4.2-11.7,6.5
		c-1.8,1.1-3.6,1.6-5.7,1.5c-2-0.1-3.9,0-5.9,0c-0.2-0.1-0.2-0.2-0.2-0.3C160.9,74.1,161.4,73.7,162,73.4z M205.8,177.6
		c-2.2,0-4.3,0-6.4,0c-0.9-5.8-1.7-11.6-2.7-18c-0.4,1-0.7,1.5-0.9,2c-1.7,4.8-3.4,9.6-5,14.5c-0.5,1.4-1.2,1.7-2.5,1.7
		c-1.4,0-2.2-0.2-2.7-1.8c-1.5-4.8-3.3-9.5-5-14.3c-0.2-0.6-0.5-1.2-0.9-2.3c-0.9,5.9-1.8,11.2-2.4,16.6c-0.2,1.5-0.8,1.8-2.1,1.7
		c-1.4-0.1-2.8,0-4.6,0c1.5-11.4,3-22.5,4.6-33.9c1.7,0,3.4-0.1,5,0.1c0.5,0,1,0.9,1.2,1.5c2,5.6,4,11.2,6,16.8
		c0.1,0.8,0.4,1.4,0.8,2.4c2.2-6.3,4.5-12.3,6.5-18.4c0.6-1.8,1.4-2.6,3.3-2.3c1,0.1,2,0,3.2,0C202.7,155.2,204.3,166.3,205.8,177.6
		z M151.8,129.6c0-5.1,0-10.2,0-15.4c0-5.1,0-10.2,0-15.4c0-1.3,0.2-2,1.8-2.1c1.6,0.1,3.1-0.2,4.9-0.4c0,9.9,0,19.5,0,29.3
		c5.1,0,10,0,15.2,0c-0.2,1.9-0.3,3.5-0.6,5c-0.1,0.4-0.8,0.8-1.3,0.8c-6.2,0.1-12.4,0-18.7,0.1
		C151.6,131.5,151.8,130.5,151.8,129.6z M114.9,127.3c4.1-9.6,8.3-19.3,12.4-28.9c0.6-1.3,1.2-2,2.7-1.8c0.8,0.1,1.7-0.1,2.5,0.1
		c0.7,0.2,1.6,0.6,1.9,1.2c4.6,10.6,9.2,21.3,13.7,32c0.2,0.2,0.2,0.6,0.3,1.2c-1.9,0.2-3.7,0.5-5.5,0.6c-0.4,0-1.1-0.5-1.3-1
		c-0.8-1.8-1.6-3.7-2.3-5.6c-0.4-1-0.9-1.4-2-1.4c-4.2,0.1-8.4,0-12.6,0.1c-0.6,0-1.5,0.6-1.8,1.2c-0.9,1.8-1.6,3.7-2.3,5.6
		c-0.3,0.9-0.8,1.3-1.9,1.1c-1.6-0.3-3.3-0.4-5.3-0.7C113.9,129.7,114.4,128.5,114.9,127.3z M117.9,143.4c7.3-1.7,14.1,2.1,15.7,8.8
		c0.4,1.9,0.3,3.9,0.4,5.8c0,0.9,0,1.8,0,2.7c0,0-0.1,0-0.2,0c0,2.7,0.4,5.4-0.1,7.9c-1.1,6.4-7.1,10.4-14.1,9.6
		c-7.1-0.8-11.3-5.5-11.4-12.6c0-3.4-0.1-6.9,0-10.3C108.3,149.1,111.8,144.8,117.9,143.4z M81.3,96.6c1.7,0,3.3-0.1,4.9,0.1
		c0.6,0.1,1.3,0.8,1.7,1.3c4.7,6.5,9.4,13,14.1,19.6c0.5,0.5,0.9,1,1.5,1.8c0-6.6,0-12.8,0-19c0-3.3,0-3.3,3.1-3.7
		c1.1-0.1,2.2-0.2,3.4-0.3c0,11.7,0,23.3,0,35.1c-1.7,0-3.5,0.1-5.2-0.1c-0.5-0.1-1.1-0.8-1.5-1.4c-4.6-6.4-9.2-12.8-13.8-19.3
		c-0.4-0.6-0.8-1.1-1.6-2.1c0,2.3,0,4,0,5.7c0,5.1-0.1,10.1,0,15.2c0,1.6-0.5,2.1-2,2c-1.5-0.1-3,0-4.6,0
		C81.3,119.8,81.3,108.3,81.3,96.6z M103.4,158.2c0,1.9,0,3.7,0,5.7C99.2,164,95,164,90.6,164c0,4.1-0.1,7.8,0,11.6
		c0.1,1.8-0.5,2.3-2.2,2.1c-1.3-0.1-2.7,0-4.2,0c0-11.3,0-22.3,0-33.6c7.1,0,14.2,0,21.6,0c-0.2,1.7-0.5,3.4-0.7,5.3
		c-4.7,0-9.4,0-14.3,0c0,3,0,5.8,0,8.8C94.9,158.2,99.1,158.2,103.4,158.2z M53.4,97.1c0-0.1,0.1-0.2,0.2-0.5c7.2,0,14.4,0,22,0
		c-0.2,1.8-0.3,3.5-0.7,5.1c-0.1,0.3-1.1,0.5-1.6,0.6c-4.3,0-8.7,0-13.2,0c0,2.8,0,5.5,0,8.4c4.2,0,8.5,0,12.9,0c0,2,0,3.8,0,5.9
		c-4.2,0.1-8.4,0.1-12.9,0.1c0,3.1,0,5.9,0,8.9c5.2,0,10.5,0,15.9,0c-0.2,1.8-0.3,3.3-0.6,4.8c-0.1,0.4-0.8,1-1.3,1
		c-6.5,0.1-13,0.1-19.5,0c-0.4,0-1.2-0.8-1.2-1.2C53.4,119.2,53.4,108.2,53.4,97.1z M25,116.1c0-5.6,0-11.3,0-16.9
		c0-0.7,0-1.4,0-2.2c5.3-0.6,10.4-1.1,15.5-0.1c7.1,1.5,10.8,7,9.4,13.8c-0.9,4.7-4.8,8-10.6,8.8c-2.5,0.3-5,0.4-7.7,0.6
		c0,3.8,0,7.4,0,11.4c-2,0-3.9,0.1-5.7-0.1c-0.4,0-0.9-1-0.9-1.5C24.9,125.3,25,120.7,25,116.1z M28.6,206.3c-1.2,0-2.3,0-3.6,0
		c0-2.7,0-5.3,0-8c0-1.9,0.1-3.9,0-5.8c-0.2-2,0.5-2.8,2.5-2.6c0.3,0,0.6,0,1.2-0.1C28.6,195.3,28.6,200.7,28.6,206.3z M31.3,177.6
		c-2.2,0-4.2,0-6.3,0c0-11.1,0-22.1,0-33.3c5.6-0.4,11.2-1.3,16.8,0.6c4.2,1.4,6.9,4.3,7.3,8.9c0.5,4.9-1.2,8.6-5.7,11
		c-0.2,0.1-0.4,0.3-0.8,0.5c2.5,3.7,3.8,8.7,10.1,7.5c0.1,1.5,0.4,2.8,0.3,4c0,0.4-0.8,1.1-1.3,1.2c-4.6,0.8-8.4-0.7-11.3-4.5
		c-1.2-1.5-2.2-3.2-3-5c-0.7-1.5-1.6-2.3-3.4-2c-0.8,0.1-1.7,0-2.7,0C31.3,170.3,31.3,173.9,31.3,177.6z M46.9,206.2
		c-1.9,0.4-3.4,0.4-4.6-1.6c-1.6-2.5-3.5-4.8-5.6-7.7c0,3.4,0,6.3,0,9.3c-1.4,0-2.6,0-3.8,0c0-5.4,0-10.8,0-16.2
		c2.1-0.5,3.5-0.1,4.8,1.8c1.6,2.5,3.5,4.8,5.2,7.2c0,0,0.2-0.1,0.3-0.1c0-2.8,0-5.6,0-8.5c1.2-0.2,2.3-0.3,3.7-0.5
		C46.9,195.4,46.9,200.7,46.9,206.2z M63.1,193.4c-1.6,0-3.1,0-4.9,0c-0.1,4.3-0.1,8.5-0.1,12.9c-1.4,0-2.5,0-3.8,0
		c0-4.3,0-8.5,0-12.9c-1.8,0-3.4,0-5.1,0c0-1.2,0-2.2,0-3.3c4.7,0,9.4,0,14.3,0C63.4,191.2,63.2,192.2,63.1,193.4z M75,196.2
		c0,1.2,0,2.2,0,3.4c-1.8,0-3.6,0-5.6,0c0,1.1,0,2.1,0,3.4c2.2,0,4.4,0,6.9,0c-0.1,1.2-0.2,2.2-0.3,3.3c-3.6,0-7,0-10.6,0
		c0.1-5.4,0.1-10.8,0.1-16.3c3.6,0,7.1,0,10.8,0c-0.2,1.1-0.3,2.1-0.5,3.2c-2.2,0-4.2,0-6.4,0c0,1,0,1.9,0,3
		C71.2,196.2,73.1,196.2,75,196.2z M77.8,177.7c-7,0-13.9,0-21,0c0-11.2,0-22.3,0-33.5c7.1,0,14.1,0,21.4,0
		c-0.2,1.8-0.5,3.6-0.7,5.5c-4.8-0.1-9.4-0.1-14.3-0.1c0,2.8,0,5.4,0,8.2c4.2,0,8.3,0,12.6,0c0,1.9,0,3.7,0,5.7c-4.2,0-8.3,0-12.6,0
		c0,3,0,5.7,0,8.6c5.1,0,10.2,0,15.4,0C78.3,174.1,78.1,175.8,77.8,177.7z M85.8,203.1c-0.5-1.2-0.9-2.4-2.8-1.5c0,1.6,0,3.1,0,4.7
		c-1.2,0-2.3,0-3.6,0c0-5.3,0-10.6,0-16.2c2.5,0,5-0.2,7.4,0.1c2.2,0.3,4,1.5,4.6,3.9c0.6,2.7-0.2,4.8-2.7,6.4
		c1,1.7,1.8,3.4,4.3,3.2c0.1,0.9,0.2,1.7,0.3,2.5C90.4,207.6,87.7,206.4,85.8,203.1z M110,206.2c-2,0.5-3.5,0.3-4.7-1.7
		c-1.6-2.5-3.5-4.8-5.5-7.6c0,3.4,0,6.2,0,9.3c-1.4,0-2.5,0-3.8,0c0-5.3,0-10.7,0-16.1c2-0.5,3.5-0.2,4.7,1.8
		c1.6,2.5,3.5,4.8,5.3,7.1c0,0,0.1-0.1,0.3-0.2c0-2.8,0-5.5,0-8.4c1.2-0.2,2.4-0.3,3.7-0.5C110,195.4,110,200.7,110,206.2z
		 M127.1,206.3c-1.3,0.3-2-0.1-2.3-1.3c-0.3-1.6-1.4-2.1-3-1.9c-0.7,0.1-1.4,0.1-2.1,0c-1.9-0.3-3.1,0.3-3.5,2.2
		c-0.2,1.1-0.9,1.3-1.9,1c-0.6,0-1.3,0-2.4-0.2c2.3-5.3,4.5-10.4,6.7-15.4c0.5-1.2,3.4-1.3,3.9-0.2c2.3,5.1,4.5,10.3,6.8,15.6
		C128.4,206.2,127.7,206.2,127.1,206.3z M140.5,193.1c-1,0.5-2.4,0.1-3.9,0.1c0,4.4,0,8.6,0,12.9c-1.4,0-2.5,0-3.9,0
		c0-4.3,0-8.5,0-12.9c-1,0-1.7,0-2.5,0c-3.1,0-3.1,0-2.6-3.3c4.7,0.1,9.4,0.1,14.7,0.1C141.6,191.3,141.3,192.7,140.5,193.1z
		 M147.7,206.3c-1.2,0-2.3,0-3.7,0c0-1.7,0-3.3,0-5c0-2.7,0-5.4,0-8.2c0-3.5,0.1-3.5,3.7-3.1C147.7,195.4,147.7,200.7,147.7,206.3z
		 M163.7,201.2c-0.4,3.5-2.9,5.6-6.5,5.6c-3.7,0-6.2-2.3-6.5-5.9c-0.1-1,0-1.9,0-2.8c0-0.6,0-1.3,0-1.9c0.1-4.1,2.5-6.6,6.5-6.6
		c4.1,0,6.5,2.4,6.6,6.5C163.8,197.8,163.9,199.5,163.7,201.2z M154.2,172.2c-0.9-1.4-1.7-2.8-2.4-4.2c-0.6-1.4-1.4-2-3-1.8
		c-0.9,0.1-1.9,0-3,0c0,3.3-0.1,6.4,0,9.4c0.1,1.5-0.5,1.9-1.9,1.8c-1.5-0.1-2.9,0-4.5,0c0-11,0-21.9,0-33.1
		c5.5-0.4,11-1.3,16.4,0.4c4.6,1.4,7.4,4.4,7.8,9.3c0.4,4.8-1.4,8.4-5.8,10.7c-0.2,0.1-0.3,0.2-0.4,0.3c1.9,5.5,4.7,7.7,9.8,7.8
		c0.1,1.3,0.4,2.6,0.4,3.9c0,0.4-0.8,0.9-1.3,1C161.6,178.7,157,176.7,154.2,172.2z M180.8,206.2c-2,0.5-3.5,0.3-4.7-1.7
		c-1.6-2.5-3.5-4.8-5.6-7.6c0,3.5,0,6.4,0,9.4c-1.4,0-2.5,0-3.8,0c0-5.4,0-10.8,0-16.2c2.2-0.6,3.6,0,4.8,1.9
		c1.6,2.4,3.4,4.7,5.5,7.4c0-3.3,0-6,0-8.9c1.3-0.2,2.5-0.4,3.8-0.6C180.8,195.4,180.8,200.8,180.8,206.2z M198.1,206.4
		c-1.5,0.5-2.2-0.2-2.5-1.5c-0.3-1.4-1.2-1.9-2.5-1.7c-0.7,0.1-1.4,0.1-2.1,0c-2.1-0.3-3.5,0.2-4,2.5c-0.1,0.4-1,0.7-1.6,0.8
		c-0.7,0.1-1.5-0.1-2.5-0.3c1.1-2.5,2.1-4.9,3.1-7.2c1.2-2.7,2.3-5.4,3.5-8c0.2-0.5,1-0.9,1.6-0.9c0.8,0,2.1,0.2,2.3,0.7
		c2.3,4.9,4.5,10,6.8,15.4C199.3,206.3,198.7,206.3,198.1,206.4z M212.4,206.2c-3.4,0-6.7,0-10.4,0c0-5.1,0-10,0.1-15
		c0-0.4,0.7-1.1,1.2-1.3c0.7-0.2,1.5-0.2,2.6-0.2c0,4.4,0,8.7,0,13.3c2.4,0,4.6,0,6.9,0C212.7,204.2,212.6,205.1,212.4,206.2z"/>
</g>
</svg>
