<?xml version="1.0" encoding="utf-8"?>
<!-- Generator: Adobe Illustrator 24.0.2, SVG Export Plug-In . SVG Version: 6.00 Build 0)  -->
<svg version="1.1" id="Layer_1" xmlns="http://www.w3.org/2000/svg" xmlns:xlink="http://www.w3.org/1999/xlink" x="0px" y="0px"
	 viewBox="0 0 211.7 205" style="enable-background:new 0 0 211.7 205;" xml:space="preserve">
<style type="text/css">
	.st0{fill:#0B0B0B;}
</style>
<g>
	<path class="st0" d="M54.1,67.7c7.8,27.7,35.2,45.6,63.6,41.5c10.5-1.5,19.9-5.7,27.6-11.8l11.9,2.3c1.8,0.5,3-0.9,2.3-2.6
		L155.4,84c-0.4-0.9-1.5-1.2-2.1-0.6l-7,8c-8,7.4-18.2,12.6-30,14.1c-3.4,0.4-6.7,0.5-10,0.3c-9.1-0.5-18.1-3.2-26.3-8.3
		c-12.4-7.8-21-19.9-24.2-34.2C52.6,49,55,34.4,62.8,22c0.6-0.9,1.1-1.8,1.8-2.6l5.8-7.5l0,0l4.8,5.6c0,0,0,0,0,0
		c-4.7,4.7-8.5,10.4-11,16.8c-4.8,12.2-4.5,25.5,0.8,37.4c10.8,24.6,39.6,36,64.4,25.1c12-5.3,21.1-14.9,25.9-27
		c4.7-12.2,4.4-25.5-0.8-37.4C144,8.7,116.9-2.8,92.7,6.2c-0.9,0.3-1.8,0.7-2.6,1.1c-4.1,1.8-7.9,4.1-11.2,6.9c0,0,0-0.1-0.1-0.1
		l-6.7-6.2c-1.4-1.4-2.6-2.1-3.6-1.2c-1,1-0.4,2.6,0.9,4l0,0.1c0,0-0.1,0.1-0.1,0.1C54.9,25,48.2,46.5,54.1,67.7z M100.8,12.2
		c21.8-8.1,45.1,2.4,52.4,21.9c8.5,22.7-8.1,45.5-28,54.2c-0.7,0.3-1.4,0.6-2.1,0.8c-19,7.1-41.5-3.2-49.7-21.8
		c-4.2-9.2-4.4-19.6-0.7-29.2C77.6,25.6,88.6,16.7,100.8,12.2z"/>
	<path class="st0" d="M150.1,131.8c-1.9,2.1-2.9,4.7-2.9,8c0,3.1,1,5.8,3,7.9c2,2.1,4.3,3.2,7.1,3.2c1.2,0,2.4-0.3,3.4-0.7
		c1-0.4,2.1-1.1,3.1-2.1v10h5.3v-29h-5.2v2.4c-0.9-0.9-2-1.6-3.1-2.1c-1.1-0.5-2.3-0.7-3.6-0.7C154.4,128.7,152,129.7,150.1,131.8z
		 M162.5,135.1c1.1,1.2,1.7,2.7,1.7,4.5c0,1.9-0.6,3.4-1.7,4.6c-1.1,1.1-2.5,1.7-4.2,1.7c-1.6,0-3-0.6-4.1-1.8
		c-1.1-1.2-1.7-2.7-1.7-4.5c0-1.8,0.5-3.3,1.6-4.5c1.1-1.1,2.4-1.7,4.1-1.7S161.3,134,162.5,135.1z"/>
	<path class="st0" d="M57.5,151.1c2.6,0,4.9-0.6,7-1.7l2.5,3.2h6.6l-5-6.5c2.5-2.8,3.8-6.2,3.8-10.1c0-4.2-1.5-7.8-4.4-10.7
		c-2.9-2.9-6.4-4.4-10.5-4.4c-2.7,0-5.2,0.6-7.5,2c-2.3,1.4-4.2,3.2-5.5,5.5s-2,4.9-2,7.6c0,4.1,1.5,7.6,4.3,10.6
		S53.2,151.1,57.5,151.1z M50.8,129.1c1.8-1.9,4-2.8,6.7-2.8c2.6,0,4.8,0.9,6.6,2.8c1.8,1.9,2.7,4.2,2.7,6.9c0,2.1-0.6,4-1.7,5.7
		l-2.4-3.3h-6.6l5.2,6.7c-1.2,0.5-2.4,0.7-3.7,0.7c-2.3,0-4.3-0.8-6.1-2.2c-2.3-1.8-3.4-4.3-3.4-7.5C48.1,133.3,49,130.9,50.8,129.1
		z"/>
	<path class="st0" d="M89.6,150.1c1-0.4,2.1-1.1,3.1-2.1v2.3H98v-21.2h-5.2v2.3c-0.9-0.9-2-1.6-3.1-2.1c-1.1-0.5-2.3-0.7-3.6-0.7
		c-2.8,0-5.2,1-7.1,3.1c-1.9,2.1-2.9,4.7-2.9,8c0,3.1,1,5.8,3,7.9c2,2.1,4.3,3.2,7.1,3.2C87.4,150.8,88.6,150.5,89.6,150.1z
		 M81.4,139.6c0-1.8,0.5-3.3,1.6-4.5c1.1-1.1,2.4-1.7,4.1-1.7c1.6,0,3,0.6,4.3,1.7c1.1,1.2,1.7,2.7,1.7,4.5c0,1.9-0.6,3.4-1.7,4.6
		c-1.1,1.1-2.5,1.7-4.2,1.7c-1.6,0-3-0.6-4.1-1.8C81.9,142.9,81.4,141.4,81.4,139.6z"/>
	<path class="st0" d="M137.6,131.4c-0.9-0.9-2-1.6-3.1-2.1c-1.1-0.5-2.3-0.7-3.6-0.7c-2.8,0-5.2,1-7.1,3.1c-1.9,2.1-2.9,4.7-2.9,8
		c0,3.1,1,5.8,3,7.9c2,2.1,4.3,3.2,7.1,3.2c1.2,0,2.4-0.3,3.4-0.7c1-0.4,2.1-1.1,3.1-2.1v2.3h5.3v-21.2h-5.2V131.4z M136.1,144.2
		c-1.1,1.1-2.5,1.7-4.2,1.7c-1.6,0-3-0.6-4.1-1.8c-1.1-1.2-1.7-2.7-1.7-4.5c0-1.8,0.5-3.3,1.6-4.5c1.1-1.1,2.4-1.7,4.1-1.7
		c1.7,0,3.1,0.6,4.3,1.7c1.1,1.2,1.7,2.7,1.7,4.5C137.8,141.5,137.2,143,136.1,144.2z"/>
	<polygon class="st0" points="102.5,129.1 102.5,133.6 110.6,133.6 101,150.3 118.2,150.3 118.2,145.8 109.2,145.8 118.8,129.1 	"/>
	<path class="st0" d="M15.4,184h8.3c-0.8,1.7-1.8,2.9-3.1,3.7c-1.3,0.8-2.9,1.2-4.8,1.2c-2.9,0-5.3-1-7.3-2.9c-2-1.9-3-4.2-3-7
		c0-2.7,1-4.9,2.9-6.8c1.9-1.9,4.3-2.8,7.1-2.8c3.2,0,6.1,1.3,8.5,3.9l3.8-3.8c-1.7-1.9-3.5-3.2-5.6-3.9c-2.2-0.9-4.5-1.4-7-1.4
		c-4.7,0-8.6,1.7-11.6,5c-2.5,2.8-3.8,6.1-3.8,9.9c0,2.7,0.6,5.3,2,7.7c1.4,2.4,3.3,4.2,5.6,5.5c2.4,1.3,5,1.9,8,1.9
		c2.8,0,5.2-0.6,7.3-1.8c2.1-1.1,3.8-2.9,5.1-5.1c1.3-2.2,2-4.6,2-7.1V179H15.4V184z"/>
	<path class="st0" d="M43.2,171.6c-3.2,0-5.8,1.1-7.9,3.2c-2.1,2.2-3.1,4.9-3.1,8.1s1,5.8,3.1,7.9c2.1,2.1,4.8,3.1,8.1,3.1
		c2.1,0,3.9-0.3,5.5-1.1c1.5-0.7,2.9-1.9,4-3.5l-4.5-2.1c-1.4,1.4-3.1,2.1-5.1,2.1c-1.7,0-3-0.4-4.1-1.3c-1.1-0.9-1.8-2.1-2-3.6
		h17.1l0.1-1.2c0-3.5-1-6.3-3.1-8.4C49.3,172.7,46.5,171.6,43.2,171.6z M39.4,177.6c1.1-0.8,2.4-1.2,3.9-1.2c1.4,0,2.6,0.4,3.6,1.1
		c1.1,0.7,1.7,1.6,2.1,2.8H37.4C38,179,38.7,178.1,39.4,177.6z"/>
	<path class="st0" d="M180.4,171.8c-1.1,0-2.2,0.3-3.2,0.7c-1,0.4-2.1,1.1-3.1,2v-10.4h-5.3v29.4h5.3V185c0-2.3,0-3.8,0.2-4.4
		c0.3-1.2,0.8-2.2,1.6-2.9s1.7-1.1,2.8-1.1c0.8,0,1.5,0.2,2.1,0.6c0.6,0.5,1,1.1,1.2,2c0.2,0.9,0.3,2.6,0.3,5v9.3h5.2v-14
		c0-2.4-0.6-4.2-1.8-5.5C184.3,172.5,182.5,171.8,180.4,171.8z"/>
	<polygon class="st0" points="206.3,172.3 200.2,185.6 194.7,172.3 189.2,172.3 197.3,192 193,201.3 198.5,201.3 211.8,172.3 	"/>
	<path class="st0" d="M155.7,171.8c-1.3,0-2.5,0.2-3.6,0.7c-1.1,0.4-2.1,1.2-3.1,2.1v-2.3v-0.1h-5.2v29h5.3v-10c1,1,2,1.7,3.1,2.1
		c1,0.5,2.2,0.7,3.4,0.7c2.7,0,5.1-1.1,7.1-3.2c2-2.1,3-4.7,3-7.9s-1-5.9-2.9-8C160.8,172.8,158.5,171.8,155.7,171.8z M158.6,187.4
		c-1.1,1.2-2.5,1.8-4.1,1.8c-1.7,0-3.1-0.5-4.2-1.7c-1.1-1.2-1.7-2.7-1.7-4.6c0-1.9,0.6-3.4,1.7-4.5c1.1-1.1,2.5-1.7,4.2-1.7
		s3.1,0.6,4.2,1.7c1.1,1.2,1.6,2.7,1.6,4.5S159.7,186.2,158.6,187.4z"/>
	<path class="st0" d="M112.3,172.6c-0.9,0.5-1.5,1.3-2,2.4v-2.7h-4.5v21.2h5.3v-8.6v-1c0-3,0.2-5,0.8-6c0.6-1,1.3-1.5,2.1-1.5
		c0.4,0,0.9,0.2,1.5,0.5l1.7-4.6c-0.8-0.3-1.5-0.5-2.2-0.5C114,171.8,113.1,172.1,112.3,172.6z"/>
	<path class="st0" d="M134.3,174.6c-0.9-0.9-2-1.6-3.1-2.1c-1.1-0.5-2.3-0.7-3.6-0.7c-2.8,0-5.2,1-7.1,3.1c-1.9,2.1-2.9,4.7-2.9,8
		c0,3.1,1,5.8,3,7.9c2,2.1,4.3,3.2,7.1,3.2c1.2,0,2.4-0.3,3.4-0.7c1-0.4,2.1-1.1,3.1-2.1v2.3h5.3v-21.2h-5.2V174.6z M132.9,187.5
		c-1.1,1.1-2.5,1.7-4.2,1.7c-1.6,0-3-0.6-4.1-1.8c-1.1-1.2-1.7-2.7-1.7-4.5s0.5-3.3,1.6-4.5c1.1-1.1,2.4-1.7,4.1-1.7
		c1.7,0,3.1,0.6,4.3,1.7c1.1,1.2,1.7,2.7,1.7,4.5C134.6,184.8,134,186.3,132.9,187.5z"/>
	<path class="st0" d="M97.3,172.3v2.2c-1.1-1-2.2-1.8-3.3-2.2c-1.1-0.5-2.3-0.7-3.5-0.7c-2.6,0-4.9,1-6.8,2.8
		c-2.1,2-3.1,4.7-3.1,8.1c0,3.1,1,5.7,3,7.8c2,2.1,4.4,3.1,7.3,3.1c1.3,0,2.5-0.2,3.5-0.6c1.1-0.4,2.1-1.1,3-2
		c0,1.7-0.1,2.9-0.5,3.6c-0.4,0.7-1,1.3-1.9,1.7c-0.9,0.5-2.1,0.7-3.5,0.7c-1.1,0-2.1-0.2-2.9-0.5c-0.8-0.3-1.5-0.7-2-1.3h-5.9
		c0.5,1.5,1.2,2.7,2.2,3.7s2.2,1.8,3.6,2.3c1.5,0.5,3.2,0.8,5.3,0.8c3.9,0,6.9-1.1,8.8-3.4c1.5-1.7,2.2-4.3,2.2-7.9v-18.2h-5.3H97.3
		z M96.1,187c-1.1,1.1-2.4,1.7-4.1,1.7s-3.1-0.6-4.2-1.7c-1.1-1.1-1.7-2.5-1.7-4.3c0-1.7,0.5-3.1,1.6-4.2c1.1-1.1,2.5-1.7,4.2-1.7
		c1.7,0,3.1,0.6,4.2,1.6c1.1,1.1,1.6,2.5,1.6,4.3S97.2,185.9,96.1,187z"/>
	<path class="st0" d="M73.1,173.3c-1.8-1-3.7-1.5-5.7-1.5c-2.8,0-5.3,1-7.3,3c-2.5,2.2-3.7,5-3.7,8.3c0,3.1,1,5.7,3.2,7.9
		c2.1,2.1,4.7,3.2,7.8,3.2c2.1,0,4-0.5,5.7-1.5c1.7-1,3.1-2.4,4.1-4.1s1.5-3.6,1.5-5.6s-0.5-3.9-1.5-5.6S74.9,174.3,73.1,173.3z
		 M71.6,187.4c-1.1,1.1-2.5,1.7-4.2,1.7c-1.6,0-3-0.6-4.1-1.7c-1.1-1.2-1.6-2.7-1.6-4.5s0.6-3.2,1.7-4.4c1.1-1.1,2.4-1.7,4.1-1.7
		c1.6,0,3,0.6,4.2,1.7c1.1,1.1,1.6,2.6,1.6,4.4C73.3,184.8,72.7,186.2,71.6,187.4z"/>
</g>
</svg>
