<?xml version="1.0" encoding="utf-8"?>
<!-- Generator: Adobe Illustrator 24.0.2, SVG Export Plug-In . SVG Version: 6.00 Build 0)  -->
<svg version="1.1" id="Layer_1" xmlns="http://www.w3.org/2000/svg" xmlns:xlink="http://www.w3.org/1999/xlink" x="0px" y="0px"
	 viewBox="0 0 619.9 68.7" style="enable-background:new 0 0 619.9 68.7;" xml:space="preserve">
<style type="text/css">
	.st0{fill:#0B0B0B;}
</style>
<g>
	<path class="st0" d="M137.7,40c-4.7-3.8-9.4-7.5-14.7-11.7c15.4,0,30.1,0,45.3,0c-2.5,4.5-4.8,8.6-7.2,12.8
		c-4.6,8.2-9.4,16.4-13.9,24.7c-1.2,2.2-2.7,3-5.3,3c-8.4-0.2-16.9,0-25.3-0.1c-2.1,0-4.4-0.6-6.2-1.7C74.4,45.2,38.3,23.4,2.1,1.7
		C1.6,1.4,1.1,1,0,0.2c61.6,0,122.6,0,184.2,0c-3.7,6.5-7.1,12.9-10.9,19c-0.5,0.9-2.8,0.9-4.2,0.9c-26.1,0.1-52.3,0-78.4,0
		c-1.3,0-2.5,0-3.8,0c-0.1,0.3-0.2,0.5-0.4,0.8c0.8,0.6,1.5,1.4,2.4,1.9c8.4,5.4,16.8,10.8,25.3,16c2,1.2,4.5,1.9,6.9,2
		c5.4,0.3,10.8,0.1,16.2,0.1C137.5,40.7,137.6,40.3,137.7,40z"/>
	<path class="st0" d="M252,57.1c1-1.3,1.8-2.8,3-4c15.4-16.5,31-32.8,46.3-49.4c2.5-2.7,4.9-4.2,8.7-3.8c2.6,0.3,5.4,0.1,8.4,0.1
		c-3.3,17.7-6.4,34.8-9.7,51.9c-1.3,7.1,0.2,6.4-8,6.5c-2,0-4.1,0-6.5,0c0.7-3.9,1.4-7.3,2.1-11.2c-7.5,0-14.5-0.1-21.4,0.1
		c-1.1,0-2.5,1.4-3.2,2.5c-4.7,7.4-11.3,9.7-19.8,8.7c-5-0.6-10.1-0.1-15.7-0.1c-1.2-8.6-2.4-17-3.7-26.2
		c-5.8,4.2-12.2,6.4-14.6,13.2c-0.5,1.4-1.5,2.7-2.3,4.1c-5.5,9.7-5.5,9.7-17.6,8.7c0.6-1.2,1.1-2.3,1.7-3.4
		C209,37.9,218.6,21.1,228,4.1c1.6-3,3.4-4.5,6.9-4.1c2.5,0.3,5.2,0.1,8.4,0.1c-4.7,8.4-9.1,16.3-13.5,24.2c0.2,0.2,0.3,0.3,0.5,0.5
		c0.8-0.5,1.7-0.9,2.5-1.4c9.8-6.8,19.7-13.5,29.4-20.4c3-2.2,6-3.3,9.7-3c3.2,0.2,6.4,0.1,10.7,0.1c-4.7,3.2-8.5,5.8-12.3,8.4
		c-7.2,4.9-14.3,9.9-21.6,14.7c-2.5,1.7-3.7,3.2-3,6.5c1.9,8.8,3.3,17.8,4.9,26.7C251,56.6,251.5,56.9,252,57.1z M303.7,15.4
		c-0.3-0.2-0.6-0.4-0.9-0.6c-6.8,7.5-13.7,15.1-21.3,23.4c5.9,0,10.4,0.1,14.9-0.1c0.9,0,2.4-1.2,2.6-2
		C300.8,29.3,302.2,22.3,303.7,15.4z"/>
	<path class="st0" d="M481.7-1.8c2.6,0.3,5.2,0.4,7.7,1c9.1,2.1,12.9,8.1,11.2,17.2c-4,22-24.6,41.4-46.9,43.6
		c-4.3,0.4-8.8-0.2-13-1.3c-6.3-1.5-9.4-6.1-9.5-12.6c0-2.4,0.1-5,0.9-7.3c7.3-20.4,20.2-35,42.2-39.9c0.9-0.2,1.8-0.4,2.7-0.4
		c1.6-0.1,3.1,0,4.7,0C481.7-1.5,481.7-1.6,481.7-1.8z M446.3,41.1c-0.1,6.5,4.7,9.8,12.1,8.5c12.9-2.3,27.1-19.1,27.3-32.3
		c0-5.2-2.8-8-8.1-8.3C463.4,8.4,446.5,25.7,446.3,41.1z"/>
	<path class="st0" d="M545.4,15.3c-0.6-5.1-1.8-6.5-6.8-6.2c-3.9,0.3-8,1-11.5,2.6c-1.8,0.8-3.3,4.1-3.4,6.3
		c-0.1,1.2,2.7,3.1,4.6,3.9c4,1.6,8.2,2.4,12.2,4c6.4,2.5,8,6.1,5.6,12.6c-4.5,12.2-13.7,19.2-26.3,20.9c-6.4,0.9-13.3,0.6-19.6-0.7
		c-7.9-1.6-10.5-11-5.4-17.3c0.5-0.6,1.5-1,2.3-1c3.5-0.1,7,0,10.5,0c-0.7,7.5,1.2,9.6,8.7,9.4c4.9-0.1,9.6-1.1,12.9-5.2
		c3.3-4.1,2.4-7.5-2.5-9.4c-3.8-1.4-7.7-2.3-11.5-3.6c-6.9-2.4-8.8-6.3-6.6-13.3c2.1-6.6,6.2-11.7,12.2-15c9.7-5.3,20.1-6.2,30.6-4
		c7.5,1.5,9.9,7.5,6.2,14.2c-0.4,0.8-1.7,1.5-2.6,1.6C551.9,15.4,548.8,15.3,545.4,15.3z"/>
	<path class="st0" d="M365.6,58.5c10.9-19.3,21.3-38,31.9-56.5c0.5-1,2.2-1.8,3.3-1.8c9.2-0.1,18.5-0.2,27.7,0.1
		c9.8,0.3,13.2,5.4,10.3,14.7c-4.2,13.4-16.9,22.7-31.9,23.1c-4.2,0.1-8.3,0.2-12.5,0c-3.1-0.2-5,0.7-6.4,3.6
		c-2.4,4.9-5.4,9.5-7.9,14.3c-1,2-2.3,2.8-4.6,2.7C372.5,58.3,369.4,58.5,365.6,58.5z M396.1,27.3c6,0,11,0.3,16-0.1
		c6.1-0.5,10.9-4.9,12-10c0.8-3.6-0.6-6-4.3-6.4c-4.2-0.4-8.5-0.3-12.8-0.2c-0.7,0-1.7,0.6-2.1,1.3C402,16.8,399.2,21.7,396.1,27.3z
		"/>
	<path class="st0" d="M332.9,48.1c10,0,20.1,0,30.8,0c-2,3.5-3.6,6.5-5.4,9.3c-0.4,0.6-1.5,1.1-2.3,1.1c-15.4,0.1-30.9,0-47.4,0
		c3.5-4.9,4.7-10.2,9.4-13.6c14.4-10.2,28.7-20.6,43-30.9c1.1-0.8,2.2-1.7,4.4-3.2c-9.9,0-18.6,0-28.3,0c2.2-3.8,3.9-6.9,5.8-9.9
		c0.4-0.6,1.5-0.9,2.4-0.9c14.2-0.1,28.3,0,44,0c-3.4,4.5-5.5,9-9,11.7c-14.6,11.2-29.6,21.9-44.5,32.7c-1.1,0.8-2.2,1.7-3.3,2.5
		C332.6,47.4,332.8,47.8,332.9,48.1z"/>
	<path class="st0" d="M619.9,0.1l-6.4,10.8h-8.7h-9.4l-26.1,47.7h-12.8c0,0,17.7-31.5,26.8-47.7c-6.1,0-11.6,0-18.1,0
		c2.2-3.9,3.9-7,5.8-10c0.3-0.5,1.3-0.8,2-0.8C588.5,0.1,619.9,0.1,619.9,0.1z"/>
</g>
</svg>
